other-lakes-phenology
…
Double check

Note: Make sure this is right. Looking at the YSL data, there is just one Year column, but sometimes the ice forms at the end of the year (i.e., Dec) or the beginning of the year (i.e.Jan). Is combining the ice on/off date with that year correct? May be ading a years worth of ice duration.

Back to combining data

Bind rows for the ysl and non-ysl data

full_fig <- bind_rows(fig_dat, ysl_ice)
full_fig

## # A tibble: 744 x 10
##    lake     lakecode start_year iceOn      iceOff     orig_duration j_on_wy
##    <chr>    <chr>         <dbl> <date>     <date>             <dbl>   <int>
##  1 kallsjon GW369          1927 1927-12-16 1928-05-26            NA      77
##  2 kallsjon GW369          1928 1928-12-16 1929-05-20            NA      77
##  3 kallsjon GW369          1929 1930-02-20 1930-05-03            NA     143
##  4 kallsjon GW369          1930 1931-01-06 1931-05-16            NA      98
##  5 kallsjon GW369          1931 1931-12-29 1932-05-22            NA      90
##  6 kallsjon GW369          1932 1933-01-12 1933-05-27            NA     104
##  7 kallsjon GW369          1933 1934-02-08 1934-05-11            NA     131
##  8 kallsjon GW369          1934 1934-12-31 1935-05-26            NA      92
##  9 kallsjon GW369          1935 1936-01-16 1936-05-28            NA     108
## 10 kallsjon GW369          1936 1937-01-26 1937-05-14            NA     118
## # i 734 more rows
## # i 3 more variables: j_off_wy <int>, ice_days <int>, dur_eq <lgl>
…
